[gd_scene load_steps=5 format=2]

[ext_resource path="res://BasketBall.gd" type="Script" id=1]
[ext_resource path="res://basketball.png" type="Texture" id=2]

[sub_resource type="PhysicsMaterial" id=1]
bounce = 1.0

[sub_resource type="CircleShape2D" id=2]
radius = 7.39586

[node name="BasketBall" type="RigidBody2D"]
position = Vector2( 899.126, 181.503 )
collision_layer = 9
collision_mask = 9
mass = 0.84898
physics_material_override = SubResource( 1 )
gravity_scale = 3.0
script = ExtResource( 1 )

[node name="basketball" type="Sprite" parent="."]
texture = ExtResource( 2 )

[node name="CollisionShape2D" type="CollisionShape2D" parent="."]
position = Vector2( -0.701538, -0.701538 )
shape = SubResource( 2 )
