[gd_scene load_steps=6 format=2]

[ext_resource path="res://Coin.gd" type="Script" id=1]
[ext_resource path="res://coin.png" type="Texture" id=2]

[sub_resource type="CircleShape2D" id=1]
radius = 12.5482

[sub_resource type="Animation" id=2]
resource_name = "collected"
length = 2.1
tracks/0/type = "value"
tracks/0/path = NodePath("coin:visible")
tracks/0/interp = 1
tracks/0/loop_wrap = true
tracks/0/imported = false
tracks/0/enabled = true
tracks/0/keys = {
"times": PoolRealArray( 0 ),
"transitions": PoolRealArray( 1 ),
"update": 1,
"values": [ false ]
}
tracks/1/type = "value"
tracks/1/path = NodePath("CPUParticles2D:emitting")
tracks/1/interp = 1
tracks/1/loop_wrap = true
tracks/1/imported = false
tracks/1/enabled = true
tracks/1/keys = {
"times": PoolRealArray( 0 ),
"transitions": PoolRealArray( 1 ),
"update": 1,
"values": [ true ]
}
tracks/2/type = "method"
tracks/2/path = NodePath(".")
tracks/2/interp = 1
tracks/2/loop_wrap = true
tracks/2/imported = false
tracks/2/enabled = true
tracks/2/keys = {
"times": PoolRealArray( 2.1 ),
"transitions": PoolRealArray( 1 ),
"values": [ {
"args": [  ],
"method": "queue_free"
} ]
}

[sub_resource type="Animation" id=3]
resource_name = "spin"
loop = true
tracks/0/type = "value"
tracks/0/path = NodePath("coin:frame")
tracks/0/interp = 1
tracks/0/loop_wrap = true
tracks/0/imported = false
tracks/0/enabled = true
tracks/0/keys = {
"times": PoolRealArray( 0, 0.1, 0.2, 0.3, 0.4, 0.5, 0.6, 0.7, 0.8, 0.9 ),
"transitions": PoolRealArray( 1, 1, 1, 1, 1, 1, 1, 1, 1, 1 ),
"update": 1,
"values": [ 0, 1, 2, 3, 4, 5, 6, 7, 8, 9 ]
}
tracks/1/type = "value"
tracks/1/path = NodePath("coin:visible")
tracks/1/interp = 1
tracks/1/loop_wrap = true
tracks/1/imported = false
tracks/1/enabled = true
tracks/1/keys = {
"times": PoolRealArray( 0 ),
"transitions": PoolRealArray( 1 ),
"update": 1,
"values": [ true ]
}

[node name="Coin" type="Node2D"]
position = Vector2( 304.687, -97.108 )
script = ExtResource( 1 )

[node name="coin" type="Sprite" parent="."]
visible = false
scale = Vector2( 1.5, 1.5 )
texture = ExtResource( 2 )
hframes = 10

[node name="Area2D" type="Area2D" parent="."]

[node name="CollisionShape2D" type="CollisionShape2D" parent="Area2D"]
shape = SubResource( 1 )

[node name="AnimationPlayer" type="AnimationPlayer" parent="."]
autoplay = "spin"
anims/collected = SubResource( 2 )
anims/spin = SubResource( 3 )

[node name="CPUParticles2D" type="CPUParticles2D" parent="."]
scale = Vector2( 1.7, 1.7 )
emitting = false
amount = 20
lifetime = 2.0
one_shot = true
speed_scale = 2.0
explosiveness = 0.58
emission_shape = 1
emission_sphere_radius = 4.32
direction = Vector2( 0, 0 )
spread = 180.0
gravity = Vector2( 0, 20 )
initial_velocity = 51.95
color = Color( 1, 0.894118, 0.643137, 1 )

[connection signal="body_entered" from="Area2D" to="." method="_on_Area2D_body_entered"]
